…
```r
#DELETE THIS CODE?

#nls_term
nls_term %>% group_by(id,transnum,termnum) %>% summarise(n_per_key=n()) %>% ungroup %>% count(n_per_key)
#> # A tibble: 1 x 2
#>   n_per_key      n
#>       <int>  <int>
#> 1         1 120885

#nls_course; key doesn't exist
nls_course %>% group_by(id,transnum,termnum,crsecip) %>% summarise(n_per_key=n()) %>% ungroup %>% count(n_per_key)
#> # A tibble: 24 x 2
#>    n_per_key      n
#>        <int>  <int>
#>  1         1 403677
#>  2         2  25658
#>  3         3   4439
#>  4         4   1784
#>  5         5    715
#>  6         6    375
#>  7         7    136
#>  8         8     61
#>  9         9     37
#> 10        10     25
#> # ... with 14 more rows
```
…
